[
  {
      "_id": "605f8aeb2c454233a8be32d3",
      "name": "Holly Molly",
      "description": "Ja heeee nee",
      "equipment": {
          "_id": "605a6a73c4ad72129484cd5a",
          "name": "item"
      },
      "user": "605910facb83783450f5460a",
      "__v": 0
  },
  {
    "_id": "605f8aeb2c454233a8be32g2",
    "name": "Nelly Delly",
    "description": "hahaha nee",
    "equipment": {
        "_id": "605a6a73c4ad72129484cdsagdusag",
        "name": "Glapja"
    },
    "__v": 0
}
]
